<svg width="34" height="34" viewBox="0 0 34 34" fill="none" xmlns="http://www.w3.org/2000/svg">
<path d="M31.4548 9.15502L19.7881 1.20002C18.9678 0.635497 17.9955 0.333252 16.9998 0.333252C16.004 0.333252 15.0317 0.635497 14.2115 1.20002L2.54479 9.15502C1.86068 9.62389 1.30155 10.2529 0.916081 10.9872C0.53061 11.7216 0.330482 12.539 0.333119 13.3684V28.59C0.324241 29.9259 0.845732 31.2107 1.78314 32.1625C2.72054 33.1143 3.99727 33.6552 5.33312 33.6667H28.6665C30.0023 33.6552 31.279 33.1143 32.2164 32.1625C33.1538 31.2107 33.6753 29.9259 33.6665 28.59V13.3684C33.6691 12.539 33.469 11.7216 33.0835 10.9872C32.698 10.2529 32.1389 9.62389 31.4548 9.15502ZM13.6665 30.3333V22H20.3331V30.3333H13.6665ZM30.3331 28.59C30.3425 29.042 30.1724 29.4793 29.86 29.806C29.5476 30.1328 29.1184 30.3224 28.6665 30.3333H23.6665V20.3333C23.6665 19.8913 23.4909 19.4674 23.1783 19.1548C22.8657 18.8423 22.4418 18.6667 21.9998 18.6667H11.9998C11.5578 18.6667 11.1338 18.8423 10.8213 19.1548C10.5087 19.4674 10.3331 19.8913 10.3331 20.3333V30.3333H5.33312C4.88118 30.3224 4.45199 30.1328 4.1396 29.806C3.8272 29.4793 3.65706 29.042 3.66645 28.59V13.3684C3.66418 13.0818 3.73192 12.799 3.86379 12.5445C3.99566 12.2901 4.18766 12.0717 4.42312 11.9084L16.0898 3.95335C16.3574 3.76887 16.6748 3.67009 16.9998 3.67009C17.3248 3.67009 17.6422 3.76887 17.9098 3.95335L29.5764 11.9084C29.8119 12.0717 30.0039 12.2901 30.1358 12.5445C30.2676 12.799 30.3354 13.0818 30.3331 13.3684V28.59Z" fill="#8E8EA1"/>
</svg>
