<svg width="38" height="38" viewBox="0 0 38 38" fill="none" xmlns="http://www.w3.org/2000/svg">
<path d="M17.3332 14H23.9998C24.4419 14 24.8658 13.8244 25.1784 13.5118C25.4909 13.1992 25.6665 12.7753 25.6665 12.3333C25.6665 11.8913 25.4909 11.4673 25.1784 11.1548C24.8658 10.8422 24.4419 10.6666 23.9998 10.6666H20.6665V8.99996C20.6665 8.55793 20.4909 8.13401 20.1784 7.82145C19.8658 7.50889 19.4419 7.33329 18.9998 7.33329C18.5578 7.33329 18.1339 7.50889 17.8213 7.82145C17.5088 8.13401 17.3332 8.55793 17.3332 8.99996V10.6666C16.0071 10.6666 14.7353 11.1934 13.7976 12.1311C12.86 13.0688 12.3332 14.3405 12.3332 15.6666C12.3332 16.9927 12.86 18.2645 13.7976 19.2022C14.7353 20.1398 16.0071 20.6666 17.3332 20.6666H20.6665C21.1085 20.6666 21.5325 20.8422 21.845 21.1548C22.1576 21.4673 22.3332 21.8913 22.3332 22.3333C22.3332 22.7753 22.1576 23.1992 21.845 23.5118C21.5325 23.8244 21.1085 24 20.6665 24H13.9998C13.5578 24 13.1339 24.1756 12.8213 24.4881C12.5088 24.8007 12.3332 25.2246 12.3332 25.6666C12.3332 26.1087 12.5088 26.5326 12.8213 26.8451C13.1339 27.1577 13.5578 27.3333 13.9998 27.3333H17.3332V29C17.3332 29.442 17.5088 29.8659 17.8213 30.1785C18.1339 30.491 18.5578 30.6666 18.9998 30.6666C19.4419 30.6666 19.8658 30.491 20.1784 30.1785C20.4909 29.8659 20.6665 29.442 20.6665 29V27.3333C21.9926 27.3333 23.2644 26.8065 24.202 25.8688C25.1397 24.9311 25.6665 23.6594 25.6665 22.3333C25.6665 21.0072 25.1397 19.7354 24.202 18.7978C23.2644 17.8601 21.9926 17.3333 20.6665 17.3333H17.3332C16.8912 17.3333 16.4672 17.1577 16.1547 16.8451C15.8421 16.5326 15.6665 16.1087 15.6665 15.6666C15.6665 15.2246 15.8421 14.8007 16.1547 14.4881C16.4672 14.1756 16.8912 14 17.3332 14ZM18.9998 0.666626C15.3739 0.666626 11.8293 1.74186 8.81439 3.75635C5.79949 5.77084 3.44966 8.63412 2.06205 11.9841C0.674448 15.3341 0.311386 19.0203 1.01878 22.5766C1.72618 26.1329 3.47226 29.3996 6.03622 31.9636C8.60019 34.5275 11.8669 36.2736 15.4232 36.981C18.9795 37.6884 22.6657 37.3254 26.0157 35.9377C29.3657 34.5501 32.229 32.2003 34.2435 29.1854C36.258 26.1705 37.3332 22.6259 37.3332 19C37.3332 14.1377 35.4016 9.4745 31.9635 6.03633C28.5253 2.59817 23.8622 0.666626 18.9998 0.666626ZM18.9998 34C16.0331 34 13.133 33.1202 10.6663 31.472C8.19956 29.8238 6.27697 27.4811 5.14165 24.7402C4.00634 21.9993 3.70929 18.9833 4.28807 16.0736C4.86685 13.1639 6.29546 10.4911 8.39324 8.39336C10.491 6.29557 13.1638 4.86696 16.0735 4.28818C18.9832 3.7094 21.9992 4.00645 24.7401 5.14177C27.481 6.27708 29.8237 8.19967 31.4719 10.6664C33.1201 13.1331 33.9999 16.0332 33.9999 19C33.9999 22.9782 32.4195 26.7935 29.6065 29.6066C26.7934 32.4196 22.9781 34 18.9998 34Z" fill="#8E8EA1"/>
</svg>
